<?xml version="1.0" encoding="UTF-8"?>
<svg xmlns="http://www.w3.org/2000/svg" xmlns:xlink="http://www.w3.org/1999/xlink" width="30pt" height="30.000001pt" viewBox="0 0 30 30.000001" version="1.2">
<defs>
<clipPath id="clip1">
  <path d="M 1.464844 0.980469 L 28.105469 0.980469 L 28.105469 27.621094 L 1.464844 27.621094 Z M 1.464844 0.980469 "/>
</clipPath>
</defs>
<g id="surface1">
<g clip-path="url(#clip1)" clip-rule="nonzero">
<path style=" stroke:none;fill-rule:nonzero;fill:rgb(23.139954%,34.899902%,59.609985%);fill-opacity:1;" d="M 5.460938 0.980469 L 24.109375 0.980469 C 24.371094 0.980469 24.632812 1.003906 24.886719 1.054688 C 25.144531 1.109375 25.394531 1.183594 25.636719 1.285156 C 25.878906 1.382812 26.109375 1.507812 26.328125 1.652344 C 26.546875 1.800781 26.75 1.964844 26.933594 2.148438 C 27.121094 2.335938 27.285156 2.539062 27.429688 2.753906 C 27.578125 2.972656 27.699219 3.203125 27.800781 3.445312 C 27.902344 3.6875 27.976562 3.9375 28.027344 4.195312 C 28.078125 4.453125 28.105469 4.714844 28.105469 4.976562 L 28.105469 23.625 C 28.105469 23.886719 28.078125 24.148438 28.027344 24.40625 C 27.976562 24.660156 27.902344 24.910156 27.800781 25.152344 C 27.699219 25.394531 27.578125 25.625 27.429688 25.84375 C 27.285156 26.0625 27.121094 26.265625 26.933594 26.449219 C 26.75 26.636719 26.546875 26.800781 26.328125 26.949219 C 26.109375 27.09375 25.878906 27.214844 25.636719 27.316406 C 25.394531 27.417969 25.144531 27.492188 24.886719 27.542969 C 24.632812 27.59375 24.371094 27.621094 24.109375 27.621094 L 5.460938 27.621094 C 5.199219 27.621094 4.9375 27.59375 4.679688 27.542969 C 4.421875 27.492188 4.171875 27.417969 3.929688 27.316406 C 3.6875 27.214844 3.457031 27.09375 3.238281 26.949219 C 3.023438 26.800781 2.820312 26.636719 2.632812 26.449219 C 2.449219 26.265625 2.28125 26.0625 2.136719 25.84375 C 1.992188 25.625 1.867188 25.394531 1.769531 25.152344 C 1.667969 24.910156 1.589844 24.660156 1.539062 24.40625 C 1.488281 24.148438 1.464844 23.886719 1.464844 23.625 L 1.464844 4.976562 C 1.464844 4.714844 1.488281 4.453125 1.539062 4.195312 C 1.589844 3.9375 1.667969 3.6875 1.769531 3.445312 C 1.867188 3.203125 1.992188 2.972656 2.136719 2.753906 C 2.28125 2.539062 2.449219 2.335938 2.632812 2.148438 C 2.820312 1.964844 3.023438 1.800781 3.238281 1.652344 C 3.457031 1.507812 3.6875 1.382812 3.929688 1.285156 C 4.171875 1.183594 4.421875 1.109375 4.679688 1.054688 C 4.9375 1.003906 5.199219 0.980469 5.460938 0.980469 Z M 5.460938 0.980469 "/>
</g>
<path style=" stroke:none;fill-rule:nonzero;fill:rgb(100%,100%,100%);fill-opacity:1;" d="M 16.398438 24.707031 L 16.398438 9.148438 C 16.398438 8.054688 16.710938 7.328125 18.21875 7.328125 L 20.195312 7.328125 L 20.195312 4.050781 C 19.832031 3.996094 18.6875 3.894531 17.332031 3.894531 C 14.523438 3.894531 12.597656 5.609375 12.597656 8.785156 L 12.597656 24.707031 M 20.039062 11.492188 L 9.371094 11.492188 L 9.371094 15.238281 L 19.570312 15.238281 "/>
</g>
</svg>
